[
  {
    "id": "1",
    "type": "opened",
    "question": "Lorem ipsum dolor sit amet consectetur adipisicing elit. Dicta, expedita!"
  },
  {
    "id": "2",
    "type": "test",
    "question": "AAA Lorem ipsum dolor sit amet consectetur adipisicing elit. Dignissimos, laboriosam iste? Distinctio.",
    "options": ["sdf", "ee", "iii", "ccc"],
    "timer": 10
  },
  {
    "id": "3",
    "type": "opened",
    "question": "BBB Lorem, ipsum dolor.",
    "imgUrl": "https://picsum.photos/200/200"
  },
  {
    "id": "4",
    "type": "opened",
    "question": "DDD Lorem ipsum dolor sit amet consectetur adipisicing elit. Similique, commodi. Dignissimos dolorem pariatur quae aperiam placeat voluptatibus quos soluta voluptas.",
    "timer": 20
  },
  {
    "id": "5",
    "type": "test",
    "question": "FFF Lorem ipsum dolor sit amet consectetur adipisicing elit. Eius, nobis.",
    "imgUrl": "https://picsum.photos/200/200",
    "options": ["123", "344", "666", "777"]
  }
]
